{"page": 5, "per_page": 1, "photos": [{"id": 158340, "width": 2500, "height": 1662, "url": "https://www.pexels.com/photo/photography-of-tan-white-fox-158340/", "photographer": "Pixabay", "photographer_url": "https://www.pexels.com/@pixabay", "photographer_id": 2659, "avg_color": "#6D543A", "src": {"original": "https://images.pexels.com/photos/158340/fuchs-wild-animal-predator-animal-world-158340.jpeg", "large2x": "https://images.pexels.com/photos/158340/fuchs-wild-animal-predator-animal-world-158340.jpeg?auto=compress&cs=tinysrgb&dpr=2&h=650&w=940", "large": "https://images.pexels.com/photos/158340/fuchs-wild-animal-predator-animal-world-158340.jpeg?auto=compress&cs=tinysrgb&h=650&w=940", "medium": "https://images.pexels.com/photos/158340/fuchs-wild-animal-predator-animal-world-158340.jpeg?auto=compress&cs=tinysrgb&h=350", "small": "https://images.pexels.com/photos/158340/fuchs-wild-animal-predator-animal-world-158340.jpeg?auto=compress&cs=tinysrgb&h=130", "portrait": "https://images.pexels.com/photos/158340/fuchs-wild-animal-predator-animal-world-158340.jpeg?auto=compress&cs=tinysrgb&fit=crop&h=1200&w=800", "landscape": "https://images.pexels.com/photos/158340/fuchs-wild-animal-predator-animal-world-158340.jpeg?auto=compress&cs=tinysrgb&fit=crop&h=627&w=1200", "tiny": "https://images.pexels.com/photos/158340/fuchs-wild-animal-predator-animal-world-158340.jpeg?auto=compress&cs=tinysrgb&dpr=1&fit=crop&h=200&w=280"}, "liked": false, "alt": "Photography of Tan White Fox"}], "total_results": 483, "next_page": "https://api.pexels.com/v1/search/?page=6&per_page=1&query=fox", "prev_page": "https://api.pexels.com/v1/search/?page=4&per_page=1&query=fox"}